<?xml version="1.0" encoding="UTF-8"?>
<svg width="134px" height="134px" viewBox="0 0 134 134" version="1.1" xmlns="http://www.w3.org/2000/svg" xmlns:xlink="http://www.w3.org/1999/xlink">
    <!-- Generator: Sketch 52.2 (67145) - http://www.bohemiancoding.com/sketch -->
    <title>Group 65</title>
    <desc>Created with Sketch.</desc>
    <g id="/company" stroke="none" stroke-width="1" fill="none" fill-rule="evenodd">
        <g id="company-page-v1" transform="translate(-393.000000, -2988.000000)">
            <g id="Group-65" transform="translate(395.000000, 2990.000000)">
                <path d="M123.367347,65 C123.367347,97.2360204 97.2360204,123.367347 65,123.367347 C32.7639796,123.367347 6.63265306,97.2360204 6.63265306,65 C6.63265306,32.7639796 32.7639796,6.63265306 65,6.63265306 C97.2360204,6.63265306 123.367347,32.7639796 123.367347,65" id="Fill-1" fill="#FFFFFF"></path>
                <path d="M123.367347,65 C123.367347,97.2360204 97.2360204,123.367347 65,123.367347 C32.7639796,123.367347 6.63265306,97.2360204 6.63265306,65 C6.63265306,32.7639796 32.7639796,6.63265306 65,6.63265306 C97.2360204,6.63265306 123.367347,32.7639796 123.367347,65 Z" id="Stroke-3" stroke="#333333" stroke-width="2.65306122" stroke-linecap="round" stroke-linejoin="round"></path>
                <polygon id="Fill-5" fill="#E24329" points="65.0051735 88.3153673 65.0051735 88.3153673 74.4368061 59.614551 55.5735408 59.614551"></polygon>
                <polygon id="Fill-7" fill="#FC6D26" points="64.9986735 88.3153673 55.5657143 59.614551 42.3587755 59.614551"></polygon>
                <path d="M42.354398,59.6239694 L39.4837857,68.3445816 C39.2237857,69.1365204 39.5050102,70.0107041 40.1908265,70.5041735 L64.9929694,88.3247857 L42.354398,59.6239694 Z" id="Fill-9" fill="#FCA326"></path>
                <path d="M42.357051,59.6239694 L55.5759286,59.6239694 L49.8877653,42.3392755 C49.5959286,41.4544796 48.3264388,41.4544796 48.0253163,42.3392755 L42.357051,59.6239694 Z" id="Fill-11" fill="#E24329"></path>
                <polygon id="Fill-13" fill="#FC6D26" points="65.0051735 88.3153673 74.4368061 59.614551 87.6556837 59.614551"></polygon>
                <path d="M87.645602,59.6239694 L90.5162143,68.3445816 C90.7762143,69.1365204 90.4949898,70.0107041 89.8091735,70.5041735 L65.0070306,88.3141735 L87.645602,59.6239694 Z" id="Fill-15" fill="#FCA326"></path>
                <path d="M87.6532959,59.6239694 L74.4344184,59.6239694 L80.1119694,42.3392755 C80.4038061,41.4544796 81.6732959,41.4544796 81.9744184,42.3392755 L87.6532959,59.6239694 Z" id="Fill-17" fill="#E24329"></path>
                <polygon id="Stroke-19" stroke="#333333" stroke-width="2.65306122" stroke-linecap="round" stroke-linejoin="round" points="65.0051735 88.3153673 65.0051735 88.3153673 74.4368061 59.614551 55.5735408 59.614551"></polygon>
                <polygon id="Stroke-21" stroke="#333333" stroke-width="2.65306122" stroke-linecap="round" stroke-linejoin="round" points="64.9986735 88.3153673 55.5657143 59.614551 42.3587755 59.614551"></polygon>
                <path d="M42.354398,59.6239694 L39.4837857,68.3445816 C39.2237857,69.1365204 39.5050102,70.0107041 40.1908265,70.5041735 L64.9929694,88.3247857 L42.354398,59.6239694 Z" id="Stroke-23" stroke="#333333" stroke-width="2.65306122" stroke-linecap="round" stroke-linejoin="round"></path>
                <path d="M42.357051,59.6239694 L55.5759286,59.6239694 L49.8877653,42.3392755 C49.5959286,41.4544796 48.3264388,41.4544796 48.0253163,42.3392755 L42.357051,59.6239694 Z" id="Stroke-25" stroke="#333333" stroke-width="2.65306122" stroke-linecap="round" stroke-linejoin="round"></path>
                <polygon id="Stroke-27" stroke="#333333" stroke-width="2.65306122" stroke-linecap="round" stroke-linejoin="round" points="65.0051735 88.3153673 74.4368061 59.614551 87.6556837 59.614551"></polygon>
                <path d="M87.645602,59.6239694 L90.5162143,68.3445816 C90.7762143,69.1365204 90.4949898,70.0107041 89.8091735,70.5041735 L65.0070306,88.3141735 L87.645602,59.6239694 Z" id="Stroke-29" stroke="#333333" stroke-width="2.65306122" stroke-linecap="round" stroke-linejoin="round"></path>
                <path d="M87.6532959,59.6239694 L74.4344184,59.6239694 L80.1119694,42.3392755 C80.4038061,41.4544796 81.6732959,41.4544796 81.9744184,42.3392755 L87.6532959,59.6239694 Z" id="Stroke-31" stroke="#333333" stroke-width="2.65306122" stroke-linecap="round" stroke-linejoin="round"></path>
                <path d="M71.6326531,6.63265306 C71.6326531,10.2965306 68.6638776,13.2653061 65,13.2653061 C61.3361224,13.2653061 58.3673469,10.2965306 58.3673469,6.63265306 C58.3673469,2.96877551 61.3361224,0 65,0 C68.6638776,0 71.6326531,2.96877551 71.6326531,6.63265306" id="Fill-33" fill="#FCA326"></path>
                <path d="M71.6326531,6.63265306 C71.6326531,10.2965306 68.6638776,13.2653061 65,13.2653061 C61.3361224,13.2653061 58.3673469,10.2965306 58.3673469,6.63265306 C58.3673469,2.96877551 61.3361224,0 65,0 C68.6638776,0 71.6326531,2.96877551 71.6326531,6.63265306 Z" id="Stroke-35" stroke="#333333" stroke-width="2.65306122" stroke-linecap="round" stroke-linejoin="round"></path>
                <path d="M71.6326531,123.367347 C71.6326531,127.031224 68.6638776,130 65,130 C61.3361224,130 58.3673469,127.031224 58.3673469,123.367347 C58.3673469,119.703469 61.3361224,116.734694 65,116.734694 C68.6638776,116.734694 71.6326531,119.703469 71.6326531,123.367347" id="Fill-37" fill="#CCCCCC"></path>
                <path d="M71.6326531,123.367347 C71.6326531,127.031224 68.6638776,130 65,130 C61.3361224,130 58.3673469,127.031224 58.3673469,123.367347 C58.3673469,119.703469 61.3361224,116.734694 65,116.734694 C68.6638776,116.734694 71.6326531,119.703469 71.6326531,123.367347 Z" id="Stroke-39" stroke="#333333" stroke-width="2.65306122" stroke-linecap="round" stroke-linejoin="round"></path>
                <path d="M123.367347,71.6326531 C119.703469,71.6326531 116.734694,68.6638776 116.734694,65 C116.734694,61.3361224 119.703469,58.3673469 123.367347,58.3673469 C127.031224,58.3673469 130,61.3361224 130,65 C130,68.6638776 127.031224,71.6326531 123.367347,71.6326531" id="Fill-41" fill="#FC6D26"></path>
                <path d="M123.367347,71.6326531 C119.703469,71.6326531 116.734694,68.6638776 116.734694,65 C116.734694,61.3361224 119.703469,58.3673469 123.367347,58.3673469 C127.031224,58.3673469 130,61.3361224 130,65 C130,68.6638776 127.031224,71.6326531 123.367347,71.6326531 Z" id="Stroke-43" stroke="#333333" stroke-width="2.65306122" stroke-linecap="round" stroke-linejoin="round"></path>
                <path d="M6.63265306,71.6326531 C2.96877551,71.6326531 0,68.6638776 0,65 C0,61.3361224 2.96877551,58.3673469 6.63265306,58.3673469 C10.2965306,58.3673469 13.2653061,61.3361224 13.2653061,65 C13.2653061,68.6638776 10.2965306,71.6326531 6.63265306,71.6326531" id="Fill-45" fill="#CCCCCC"></path>
                <path d="M6.63265306,71.6326531 C2.96877551,71.6326531 0,68.6638776 0,65 C0,61.3361224 2.96877551,58.3673469 6.63265306,58.3673469 C10.2965306,58.3673469 13.2653061,61.3361224 13.2653061,65 C13.2653061,68.6638776 10.2965306,71.6326531 6.63265306,71.6326531 Z" id="Stroke-47" stroke="#333333" stroke-width="2.65306122" stroke-linecap="round" stroke-linejoin="round"></path>
                <path d="M28.4181327,19.0378367 C31.0075204,21.628551 31.0075204,25.8270204 28.4181327,28.4177347 C25.8274184,31.0071224 21.628949,31.0071224 19.0382347,28.4177347 C16.4488469,25.8270204 16.4488469,21.628551 19.0382347,19.0378367 C21.628949,16.448449 25.8274184,16.448449 28.4181327,19.0378367" id="Fill-49" fill="#FC6D26"></path>
                <path d="M28.4181327,19.0378367 C31.0075204,21.628551 31.0075204,25.8270204 28.4181327,28.4177347 C25.8274184,31.0071224 21.628949,31.0071224 19.0382347,28.4177347 C16.4488469,25.8270204 16.4488469,21.628551 19.0382347,19.0378367 C21.628949,16.448449 25.8274184,16.448449 28.4181327,19.0378367 Z" id="Stroke-51" stroke="#333333" stroke-width="2.65306122" stroke-linecap="round" stroke-linejoin="round"></path>
                <path d="M110.962163,101.581867 C113.551551,104.172582 113.551551,108.371051 110.962163,110.961765 C108.371449,113.551153 104.17298,113.551153 101.582265,110.961765 C98.9928776,108.371051 98.9928776,104.172582 101.582265,101.581867 C104.17298,98.9924796 108.371449,98.9924796 110.962163,101.581867" id="Fill-53" fill="#FCA326"></path>
                <path d="M110.962163,101.581867 C113.551551,104.172582 113.551551,108.371051 110.962163,110.961765 C108.371449,113.551153 104.17298,113.551153 101.582265,110.961765 C98.9928776,108.371051 98.9928776,104.172582 101.582265,101.581867 C104.17298,98.9924796 108.371449,98.9924796 110.962163,101.581867 Z" id="Stroke-55" stroke="#333333" stroke-width="2.65306122" stroke-linecap="round" stroke-linejoin="round"></path>
                <path d="M110.962163,28.4181327 C108.371449,31.0075204 104.17298,31.0075204 101.582265,28.4181327 C98.9928776,25.8274184 98.9928776,21.628949 101.582265,19.0382347 C104.17298,16.4488469 108.371449,16.4488469 110.962163,19.0382347 C113.551551,21.628949 113.551551,25.8274184 110.962163,28.4181327" id="Fill-57" fill="#FFFFFF"></path>
                <path d="M110.962163,28.4181327 C108.371449,31.0075204 104.17298,31.0075204 101.582265,28.4181327 C98.9928776,25.8274184 98.9928776,21.628949 101.582265,19.0382347 C104.17298,16.4488469 108.371449,16.4488469 110.962163,19.0382347 C113.551551,21.628949 113.551551,25.8274184 110.962163,28.4181327 Z" id="Stroke-59" stroke="#333333" stroke-width="2.65306122" stroke-linecap="round" stroke-linejoin="round"></path>
                <path d="M28.4181327,110.962163 C25.8274184,113.551551 21.628949,113.551551 19.0382347,110.962163 C16.4488469,108.371449 16.4488469,104.17298 19.0382347,101.582265 C21.628949,98.9928776 25.8274184,98.9928776 28.4181327,101.582265 C31.0075204,104.17298 31.0075204,108.371449 28.4181327,110.962163" id="Fill-61" fill="#FFFFFF"></path>
                <path d="M28.4181327,110.962163 C25.8274184,113.551551 21.628949,113.551551 19.0382347,110.962163 C16.4488469,108.371449 16.4488469,104.17298 19.0382347,101.582265 C21.628949,98.9928776 25.8274184,98.9928776 28.4181327,101.582265 C31.0075204,104.17298 31.0075204,108.371449 28.4181327,110.962163 Z" id="Stroke-63" stroke="#333333" stroke-width="2.65306122" stroke-linecap="round" stroke-linejoin="round"></path>
            </g>
        </g>
    </g>
</svg>